main.c:64:6:gyro_write	24	static
main.c:74:6:gyro_read	16	static
main.c:83:8:gyro_read_byte	24	static
main.c:92:6:gyro_init	8	static
main.c:98:5:main	88	static
main.c:155:6:HAL_TIM_PeriodElapsedCallback	16	static
main.c:163:6:SystemClock_Config	80	static
main.c:205:13:MX_SPI1_Init	8	static
main.c:243:13:MX_TIM2_Init	32	static
main.c:288:13:MX_TIM3_Init	32	static
main.c:333:13:MX_USART2_UART_Init	8	static
main.c:366:13:MX_GPIO_Init	48	static
main.c:402:6:Error_Handler	4	static,ignoring_inline_asm
