main.c:37:6:adxl_write	24	static
main.c:47:6:adxl_read	16	static
main.c:57:9:adxl_read_byte	24	static
main.c:67:6:adxl_init	8	static
main.c:86:5:main	128	static
main.c:150:6:SystemClock_Config	80	static
main.c:192:13:MX_SPI1_Init	8	static
main.c:230:13:MX_USART1_UART_Init	8	static
main.c:263:13:MX_USART2_UART_Init	8	static
main.c:296:13:MX_GPIO_Init	48	static
main.c:338:6:Error_Handler	4	static,ignoring_inline_asm
