main.c:45:6:ADC_Select_CH0	24	static
main.c:55:6:ADC_Select_CH1	24	static
main.c:64:6:ADC_Select_CH4	24	static
main.c:77:5:main	16	static
main.c:125:6:SystemClock_Config	80	static
main.c:167:13:MX_ADC_Init	24	static
main.c:236:13:MX_TIM2_Init	32	static
main.c:285:13:MX_USART2_UART_Init	8	static
main.c:318:13:MX_GPIO_Init	48	static
main.c:360:6:Error_Handler	4	static,ignoring_inline_asm
