stm32l1xx_hal_msp.c:64:6:HAL_MspInit	24	static
stm32l1xx_hal_msp.c:89:6:HAL_SPI_MspInit	48	static
stm32l1xx_hal_msp.c:126:6:HAL_SPI_MspDeInit	16	static
stm32l1xx_hal_msp.c:156:6:HAL_UART_MspInit	48	static
stm32l1xx_hal_msp.c:192:6:HAL_UART_MspDeInit	16	static
