stm32l1xx_hal_msp.c:64:6:HAL_MspInit	24	static
stm32l1xx_hal_msp.c:87:6:HAL_SPI_MspInit	56	static
stm32l1xx_hal_msp.c:149:6:HAL_SPI_MspDeInit	16	static
stm32l1xx_hal_msp.c:198:6:HAL_TIM_Base_MspInit	24	static
stm32l1xx_hal_msp.c:223:6:HAL_TIM_Base_MspDeInit	16	static
stm32l1xx_hal_msp.c:248:6:HAL_UART_MspInit	56	static
stm32l1xx_hal_msp.c:308:6:HAL_UART_MspDeInit	16	static
